[gd_scene load_steps=7 format=2]

[ext_resource path="res://entity/block/WeakBlock.tscn" type="PackedScene" id=1]
[ext_resource path="res://stage/Stage5/HippoGuru.tscn" type="PackedScene" id=2]
[ext_resource path="res://stage/Stage.tscn" type="PackedScene" id=3]
[ext_resource path="res://entity/fusing_device/BirdFusingDevice.tscn" type="PackedScene" id=4]
[ext_resource path="res://entity/Entity.gd" type="Script" id=5]
[ext_resource path="res://assets/sprites/Maquina.png" type="Texture" id=6]

[node name="Stage" instance=ExtResource( 3 )]

[node name="Chimaera" parent="." index="1" instance=ExtResource( 2 )]
position = Vector2( 63, 137 )

[node name="WeakBlock10" parent="." index="2" instance=ExtResource( 1 )]
position = Vector2( 240, 336 )

[node name="WeakBlock12" parent="." index="3" instance=ExtResource( 1 )]
position = Vector2( 240, 304 )

[node name="WeakBlock14" parent="." index="4" instance=ExtResource( 1 )]
position = Vector2( 240, 272 )

[node name="WeakBlock15" parent="." index="5" instance=ExtResource( 1 )]
position = Vector2( 208, 272 )

[node name="WeakBlock16" parent="." index="6" instance=ExtResource( 1 )]
position = Vector2( 240, 240 )

[node name="WeakBlock17" parent="." index="7" instance=ExtResource( 1 )]
position = Vector2( 208, 240 )

[node name="WeakBlock19" parent="." index="8" instance=ExtResource( 1 )]
position = Vector2( 208, 208 )

[node name="TileMap" parent="." index="9"]
tile_data = PoolIntArray( 0, 0, 0, 1, 0, 5, 2, 0, 589827, 3, 0, 4, 4, 0, 1, 5, 0, 2, 6, 0, 2, 7, 0, 5, 8, 0, 4, 9, 0, 2, 10, 0, 4, 11, 0, 3, 12, 0, 589826, 13, 0, 2, 14, 0, 5, 15, 0, 3, 16, 0, 4, 17, 0, 5, 18, 0, 589827, 19, 0, 5, 20, 0, 3, 21, 0, 589827, 22, 0, 2, 23, 0, 1, 24, 0, 3, 25, 0, 589826, 26, 0, 1, 27, 0, 1, 28, 0, 2, 29, 0, 589827, 30, 0, 2, 31, 0, 5, 32, 0, 5, 33, 0, 3, 34, 0, 1, 35, 0, 589826, 36, 0, 3, 37, 0, 589826, 38, 0, 589826, 39, 0, 6, 65536, 0, 393220, 65537, 0, 262149, 65538, 0, 131073, 65539, 0, 131075, 65540, 0, 131076, 65541, 0, 131074, 65542, 0, 131074, 65543, 0, 131074, 65544, 0, 131075, 65545, 0, 131077, 65546, 0, 131077, 65547, 0, 131076, 65548, 0, 262147, 65549, 0, 131073, 65550, 0, 131074, 65551, 0, 262147, 65552, 0, 131077, 65553, 0, 131077, 65554, 0, 131075, 65555, 0, 131077, 65556, 0, 131077, 65557, 0, 262147, 65558, 0, 131075, 65559, 0, 262146, 65560, 0, 131075, 65561, 0, 131074, 65562, 0, 131074, 65563, 0, 262146, 65564, 0, 131073, 65565, 0, 131077, 65566, 0, 262147, 65567, 0, 262147, 65568, 0, 131073, 65569, 0, 262147, 65570, 0, 262146, 65571, 0, 131073, 65572, 0, 131077, 65573, 0, 262147, 65574, 0, 262146, 65575, 0, 131078, 131072, 0, 65536, 131073, 0, 393221, 196608, 0, 327684, 196609, 0, 65542, 262144, 0, 65536, 262145, 0, 524293, 327680, 0, 393220, 327681, 0, 524293, 393216, 0, 393220, 393217, 0, 458757, 458752, 0, 65536, 458753, 0, 393221, 524288, 0, 65536, 524289, 0, 524293, 589824, 0, 393220, 589825, 0, 589829, 589826, 0, 4, 589827, 0, 2, 589828, 0, 3, 589829, 0, 589826, 589830, 0, 4, 589831, 0, 2, 589832, 0, 3, 589833, 0, 3, 589834, 0, 2, 589835, 0, 589830, 589851, 0, 589824, 589852, 0, 589827, 589853, 0, 589827, 589854, 0, 589827, 589855, 0, 1, 589856, 0, 2, 589857, 0, 2, 589858, 0, 1, 589859, 0, 2, 589860, 0, 5, 589861, 0, 3, 589862, 0, 589827, 589863, 0, 589830, 655360, 0, 327684, 655361, 0, 65539, 655362, 0, 65540, 655363, 0, 65537, 655364, 0, 65540, 655365, 0, 65540, 655366, 0, 65540, 655367, 0, 65539, 655368, 0, 65537, 655369, 0, 65538, 655370, 0, 65541, 655371, 0, 458757, 655387, 0, 458756, 655388, 0, 65537, 655389, 0, 65541, 655390, 0, 65541, 655391, 0, 65539, 655392, 0, 65537, 655393, 0, 65539, 655394, 0, 65540, 655395, 0, 65539, 655396, 0, 65538, 655397, 0, 65538, 655398, 0, 65538, 655399, 0, 524293, 720896, 0, 393220, 720897, 0, 65537, 720898, 0, 65538, 720899, 0, 65541, 720900, 0, 65541, 720901, 0, 65541, 720902, 0, 65539, 720903, 0, 65539, 720904, 0, 65538, 720905, 0, 65539, 720906, 0, 65539, 720907, 0, 524293, 720921, 0, 589824, 720922, 0, 3, 720923, 0, 589828, 720924, 0, 65539, 720925, 0, 65540, 720926, 0, 65540, 720927, 0, 65537, 720928, 0, 65539, 720929, 0, 65540, 720930, 0, 65538, 720931, 0, 65541, 720932, 0, 65539, 720933, 0, 65541, 720934, 0, 65538, 720935, 0, 65542, 786432, 0, 393220, 786433, 0, 65538, 786434, 0, 65539, 786435, 0, 65541, 786436, 0, 65537, 786437, 0, 65540, 786438, 0, 65537, 786439, 0, 65538, 786440, 0, 65541, 786441, 0, 65537, 786442, 0, 65537, 786443, 0, 393221, 786457, 0, 65536, 786458, 0, 65538, 786459, 0, 65538, 786460, 0, 65538, 786461, 0, 65541, 786462, 0, 65539, 786463, 0, 65537, 786464, 0, 65540, 786465, 0, 65537, 786466, 0, 65541, 786467, 0, 65540, 786468, 0, 65540, 786469, 0, 65538, 786470, 0, 65537, 786471, 0, 393221, 851968, 0, 393220, 851969, 0, 65537, 851970, 0, 65538, 851971, 0, 65540, 851972, 0, 65537, 851973, 0, 65540, 851974, 0, 65540, 851975, 0, 65540, 851976, 0, 65539, 851977, 0, 65540, 851978, 0, 65541, 851979, 0, 524293, 851993, 0, 393220, 851994, 0, 65538, 851995, 0, 65540, 851996, 0, 65538, 851997, 0, 65538, 851998, 0, 65539, 851999, 0, 65537, 852000, 0, 65537, 852001, 0, 65541, 852002, 0, 65541, 852003, 0, 65540, 852004, 0, 65541, 852005, 0, 65537, 852006, 0, 65537, 852007, 0, 458757, 917504, 0, 393220, 917505, 0, 65540, 917506, 0, 65541, 917507, 0, 65541, 917508, 0, 65539, 917509, 0, 65537, 917510, 0, 65537, 917511, 0, 65538, 917512, 0, 65538, 917513, 0, 65538, 917514, 0, 65538, 917515, 0, 524293, 917529, 0, 65536, 917530, 0, 65538, 917531, 0, 65537, 917532, 0, 65540, 917533, 0, 65538, 917534, 0, 65541, 917535, 0, 65541, 917536, 0, 65539, 917537, 0, 65537, 917538, 0, 65538, 917539, 0, 65538, 917540, 0, 65539, 917541, 0, 65538, 917542, 0, 65539, 917543, 0, 327685, 983040, 0, 458756, 983041, 0, 65538, 983042, 0, 65538, 983043, 0, 65541, 983044, 0, 65537, 983045, 0, 65538, 983046, 0, 65537, 983047, 0, 65537, 983048, 0, 65541, 983049, 0, 65537, 983050, 0, 65537, 983051, 0, 393221, 983065, 0, 524292, 983066, 0, 65538, 983067, 0, 65538, 983068, 0, 65541, 983069, 0, 65539, 983070, 0, 65540, 983071, 0, 65541, 983072, 0, 65537, 983073, 0, 65537, 983074, 0, 65540, 983075, 0, 65540, 983076, 0, 65540, 983077, 0, 65539, 983078, 0, 65539, 983079, 0, 458757, 1048576, 0, 393220, 1048577, 0, 65537, 1048578, 0, 65540, 1048579, 0, 65538, 1048580, 0, 65538, 1048581, 0, 65540, 1048582, 0, 65541, 1048583, 0, 65537, 1048584, 0, 65537, 1048585, 0, 65537, 1048586, 0, 65539, 1048587, 0, 524293, 1048601, 0, 458756, 1048602, 0, 65541, 1048603, 0, 65539, 1048604, 0, 65538, 1048605, 0, 65538, 1048606, 0, 65537, 1048607, 0, 65541, 1048608, 0, 65541, 1048609, 0, 65541, 1048610, 0, 65539, 1048611, 0, 65540, 1048612, 0, 65541, 1048613, 0, 65539, 1048614, 0, 65539, 1048615, 0, 458757, 1114112, 0, 393220, 1114113, 0, 65539, 1114114, 0, 65537, 1114115, 0, 65541, 1114116, 0, 65538, 1114117, 0, 65541, 1114118, 0, 65537, 1114119, 0, 65538, 1114120, 0, 65540, 1114121, 0, 65541, 1114122, 0, 65538, 1114123, 0, 589829, 1114124, 0, 2, 1114125, 0, 6, 1114137, 0, 327684, 1114138, 0, 65540, 1114139, 0, 65537, 1114140, 0, 65538, 1114141, 0, 65538, 1114142, 0, 65541, 1114143, 0, 65540, 1114144, 0, 65541, 1114145, 0, 65541, 1114146, 0, 65538, 1114147, 0, 65539, 1114148, 0, 65539, 1114149, 0, 65539, 1114150, 0, 65537, 1114151, 0, 458757, 1179648, 0, 393220, 1179649, 0, 65540, 1179650, 0, 65541, 1179651, 0, 65537, 1179652, 0, 65538, 1179653, 0, 65541, 1179654, 0, 65540, 1179655, 0, 65539, 1179656, 0, 65537, 1179657, 0, 65540, 1179658, 0, 65537, 1179659, 0, 65541, 1179660, 0, 65539, 1179661, 0, 458757, 1179673, 0, 393220, 1179674, 0, 65538, 1179675, 0, 65541, 1179676, 0, 65537, 1179677, 0, 65538, 1179678, 0, 65541, 1179679, 0, 65537, 1179680, 0, 65539, 1179681, 0, 65538, 1179682, 0, 65541, 1179683, 0, 65540, 1179684, 0, 65538, 1179685, 0, 65538, 1179686, 0, 65538, 1179687, 0, 393221, 1245184, 0, 524292, 1245185, 0, 65541, 1245186, 0, 65539, 1245187, 0, 65538, 1245188, 0, 65537, 1245189, 0, 65538, 1245190, 0, 65541, 1245191, 0, 65537, 1245192, 0, 65538, 1245193, 0, 65539, 1245194, 0, 65539, 1245195, 0, 65537, 1245196, 0, 65540, 1245197, 0, 458757, 1245209, 0, 327684, 1245210, 0, 65537, 1245211, 0, 65540, 1245212, 0, 65537, 1245213, 0, 65537, 1245214, 0, 65537, 1245215, 0, 65540, 1245216, 0, 65540, 1245217, 0, 65537, 1245218, 0, 65537, 1245219, 0, 65540, 1245220, 0, 65539, 1245221, 0, 65540, 1245222, 0, 65537, 1245223, 0, 327685, 1310720, 0, 458756, 1310721, 0, 65541, 1310722, 0, 65538, 1310723, 0, 65539, 1310724, 0, 65540, 1310725, 0, 65537, 1310726, 0, 65537, 1310727, 0, 65541, 1310728, 0, 65539, 1310729, 0, 65539, 1310730, 0, 65540, 1310731, 0, 65539, 1310732, 0, 65537, 1310733, 0, 524293, 1310745, 0, 458756, 1310746, 0, 65538, 1310747, 0, 65541, 1310748, 0, 65538, 1310749, 0, 65541, 1310750, 0, 65538, 1310751, 0, 65539, 1310752, 0, 65541, 1310753, 0, 65537, 1310754, 0, 65540, 1310755, 0, 65541, 1310756, 0, 65540, 1310757, 0, 65537, 1310758, 0, 65537, 1310759, 0, 524293, 1376256, 0, 458756, 1376257, 0, 65537, 1376258, 0, 65538, 1376259, 0, 65541, 1376260, 0, 65537, 1376261, 0, 65541, 1376262, 0, 65541, 1376263, 0, 65537, 1376264, 0, 65541, 1376265, 0, 65540, 1376266, 0, 65540, 1376267, 0, 65538, 1376268, 0, 65540, 1376269, 0, 589829, 1376270, 0, 1, 1376271, 0, 5, 1376272, 0, 5, 1376273, 0, 2, 1376274, 0, 1, 1376275, 0, 589827, 1376276, 0, 4, 1376277, 0, 4, 1376278, 0, 1, 1376279, 0, 2, 1376280, 0, 589826, 1376281, 0, 589828, 1376282, 0, 65541, 1376283, 0, 65540, 1376284, 0, 65541, 1376285, 0, 65537, 1376286, 0, 65539, 1376287, 0, 65537, 1376288, 0, 65540, 1376289, 0, 65539, 1376290, 0, 65541, 1376291, 0, 65540, 1376292, 0, 65540, 1376293, 0, 65537, 1376294, 0, 65540, 1376295, 0, 65542, 1441792, 0, 262144, 1441793, 0, 131074, 1441794, 0, 262146, 1441795, 0, 262146, 1441796, 0, 131074, 1441797, 0, 131077, 1441798, 0, 131074, 1441799, 0, 131073, 1441800, 0, 262146, 1441801, 0, 262147, 1441802, 0, 131077, 1441803, 0, 131073, 1441804, 0, 262147, 1441805, 0, 131073, 1441806, 0, 131073, 1441807, 0, 131077, 1441808, 0, 131075, 1441809, 0, 262146, 1441810, 0, 131074, 1441811, 0, 131073, 1441812, 0, 131073, 1441813, 0, 131074, 1441814, 0, 262147, 1441815, 0, 262147, 1441816, 0, 131074, 1441817, 0, 131076, 1441818, 0, 262146, 1441819, 0, 131073, 1441820, 0, 262147, 1441821, 0, 262147, 1441822, 0, 131074, 1441823, 0, 131077, 1441824, 0, 131075, 1441825, 0, 131073, 1441826, 0, 131075, 1441827, 0, 131077, 1441828, 0, 131076, 1441829, 0, 131075, 1441830, 0, 131073, 1441831, 0, 262150 )

[node name="FusingDevice" parent="." index="11" instance=ExtResource( 4 )]
position = Vector2( 141, 144 )
script = ExtResource( 5 )

[node name="Maquina" type="Sprite" parent="Scenery" index="0"]
position = Vector2( 77, 111 )
texture = ExtResource( 6 )
