[gd_scene load_steps=6 format=2]

[ext_resource path="res://stage/Stage.tscn" type="PackedScene" id=1]
[ext_resource path="res://stage/Stage5/HippoGuru.tscn" type="PackedScene" id=2]
[ext_resource path="res://entity/block/WeakBlock.tscn" type="PackedScene" id=3]
[ext_resource path="res://entity/block/HeavyBlock.tscn" type="PackedScene" id=4]
[ext_resource path="res://entity/hazard/Spike.tscn" type="PackedScene" id=5]

[node name="Stage2" instance=ExtResource( 1 )]

[node name="Chimaera" parent="." index="1" instance=ExtResource( 2 )]
position = Vector2( 59, 137 )

[node name="Entity" parent="." index="2" instance=ExtResource( 5 )]
position = Vector2( 424, 334 )

[node name="Entity2" parent="." index="3" instance=ExtResource( 5 )]
position = Vector2( 440, 334 )

[node name="Entity3" parent="." index="4" instance=ExtResource( 5 )]
position = Vector2( 456, 334 )

[node name="Entity4" parent="." index="5" instance=ExtResource( 5 )]
position = Vector2( 472, 334 )

[node name="Entity5" parent="." index="6" instance=ExtResource( 5 )]
position = Vector2( 488, 334 )

[node name="Entity6" parent="." index="7" instance=ExtResource( 5 )]
position = Vector2( 504, 334 )

[node name="Entity7" parent="." index="8" instance=ExtResource( 5 )]
position = Vector2( 520, 334 )

[node name="Entity8" parent="." index="9" instance=ExtResource( 5 )]
position = Vector2( 536, 334 )

[node name="Entity9" parent="." index="10" instance=ExtResource( 5 )]
position = Vector2( 552, 334 )

[node name="Entity10" parent="." index="11" instance=ExtResource( 5 )]
position = Vector2( 568, 334 )

[node name="Entity11" parent="." index="12" instance=ExtResource( 5 )]
position = Vector2( 584, 334 )

[node name="Entity12" parent="." index="13" instance=ExtResource( 5 )]
position = Vector2( 600, 334 )

[node name="HeavyBlock" parent="." index="14" instance=ExtResource( 4 )]
position = Vector2( 272, 144 )

[node name="WeakBlock5" parent="." index="15" instance=ExtResource( 3 )]
position = Vector2( 176, 336 )

[node name="WeakBlock6" parent="." index="16" instance=ExtResource( 3 )]
position = Vector2( 208, 336 )

[node name="WeakBlock8" parent="." index="17" instance=ExtResource( 3 )]
position = Vector2( 176, 304 )

[node name="WeakBlock9" parent="." index="18" instance=ExtResource( 3 )]
position = Vector2( 208, 304 )

[node name="WeakBlock11" parent="." index="19" instance=ExtResource( 3 )]
position = Vector2( 176, 272 )

[node name="WeakBlock12" parent="." index="20" instance=ExtResource( 3 )]
position = Vector2( 208, 272 )

[node name="WeakBlock14" parent="." index="21" instance=ExtResource( 3 )]
position = Vector2( 176, 240 )

[node name="WeakBlock15" parent="." index="22" instance=ExtResource( 3 )]
position = Vector2( 208, 240 )

[node name="WeakBlock10" parent="." index="23" instance=ExtResource( 3 )]
position = Vector2( 240, 304 )

[node name="WeakBlock13" parent="." index="24" instance=ExtResource( 3 )]
position = Vector2( 240, 272 )

[node name="WeakBlock16" parent="." index="25" instance=ExtResource( 3 )]
position = Vector2( 240, 240 )

[node name="WeakBlock17" parent="." index="26" instance=ExtResource( 3 )]
position = Vector2( 176, 208 )

[node name="WeakBlock18" parent="." index="27" instance=ExtResource( 3 )]
position = Vector2( 208, 208 )

[node name="WeakBlock19" parent="." index="28" instance=ExtResource( 3 )]
position = Vector2( 176, 176 )

[node name="WeakBlock20" parent="." index="29" instance=ExtResource( 3 )]
position = Vector2( 208, 176 )

[node name="TileMap" parent="." index="30"]
tile_data = PoolIntArray( 0, 0, 0, 1, 0, 1, 2, 0, 3, 3, 0, 589826, 4, 0, 589827, 5, 0, 4, 6, 0, 5, 7, 0, 5, 8, 0, 5, 9, 0, 3, 10, 0, 2, 11, 0, 1, 12, 0, 4, 13, 0, 1, 14, 0, 589827, 15, 0, 589826, 16, 0, 589827, 17, 0, 1, 18, 0, 2, 19, 0, 589826, 20, 0, 589827, 21, 0, 2, 22, 0, 4, 23, 0, 1, 24, 0, 4, 25, 0, 4, 26, 0, 5, 27, 0, 589826, 28, 0, 4, 29, 0, 3, 30, 0, 1, 31, 0, 3, 32, 0, 589826, 33, 0, 1, 34, 0, 1, 35, 0, 589826, 36, 0, 4, 37, 0, 1, 38, 0, 4, 39, 0, 4, 40, 0, 6, 65536, 0, 393220, 65537, 0, 262149, 65538, 0, 131073, 65539, 0, 262147, 65540, 0, 262146, 65541, 0, 131074, 65542, 0, 131076, 65543, 0, 131076, 65544, 0, 131075, 65545, 0, 131073, 65546, 0, 131073, 65547, 0, 262147, 65548, 0, 262146, 65549, 0, 262147, 65550, 0, 131073, 65551, 0, 262146, 65552, 0, 131073, 65553, 0, 131075, 65554, 0, 262147, 65555, 0, 131077, 65556, 0, 262148, 65557, 0, 262149, 65558, 0, 131074, 65559, 0, 131074, 65560, 0, 262147, 65561, 0, 262146, 65562, 0, 262146, 65563, 0, 262147, 65564, 0, 131074, 65565, 0, 262147, 65566, 0, 131074, 65567, 0, 262147, 65568, 0, 262147, 65569, 0, 262147, 65570, 0, 131073, 65571, 0, 131076, 65572, 0, 262146, 65573, 0, 131077, 65574, 0, 131077, 65575, 0, 131076, 65576, 0, 131078, 131072, 0, 65536, 131073, 0, 458757, 131092, 0, 458756, 131093, 0, 65542, 196608, 0, 524292, 196609, 0, 65542, 196628, 0, 327684, 196629, 0, 458757, 262144, 0, 524292, 262145, 0, 65542, 262164, 0, 458756, 262165, 0, 65542, 327680, 0, 393220, 327681, 0, 458757, 327700, 0, 458756, 327701, 0, 393221, 393216, 0, 524292, 393217, 0, 393221, 393236, 0, 393220, 393237, 0, 393221, 458752, 0, 327684, 458753, 0, 458757, 458772, 0, 458756, 458773, 0, 393221, 524288, 0, 524292, 524289, 0, 327685, 524308, 0, 458756, 524309, 0, 524293, 589824, 0, 65536, 589825, 0, 589829, 589826, 0, 3, 589827, 0, 1, 589828, 0, 4, 589829, 0, 4, 589830, 0, 1, 589831, 0, 2, 589832, 0, 589827, 589833, 0, 589830, 589838, 0, 0, 589839, 0, 589827, 589840, 0, 4, 589841, 0, 3, 589842, 0, 4, 589843, 0, 5, 589844, 0, 589828, 589845, 0, 524293, 589860, 0, 0, 589861, 0, 2, 589862, 0, 2, 589863, 0, 4, 589864, 0, 589830, 655360, 0, 65536, 655361, 0, 65541, 655362, 0, 65537, 655363, 0, 65538, 655364, 0, 65539, 655365, 0, 65539, 655366, 0, 65541, 655367, 0, 65538, 655368, 0, 65540, 655369, 0, 65542, 655374, 0, 458756, 655375, 0, 65539, 655376, 0, 65541, 655377, 0, 65539, 655378, 0, 65539, 655379, 0, 65538, 655380, 0, 65540, 655381, 0, 65542, 655388, 0, 196608, 655389, 0, 196609, 655390, 0, 196609, 655391, 0, 196610, 655396, 0, 262144, 655397, 0, 131076, 655398, 0, 262148, 655399, 0, 65537, 655400, 0, 458757, 720896, 0, 393220, 720897, 0, 65541, 720898, 0, 65539, 720899, 0, 65541, 720900, 0, 65538, 720901, 0, 65537, 720902, 0, 65537, 720903, 0, 65537, 720904, 0, 65538, 720905, 0, 393221, 720910, 0, 393220, 720911, 0, 65538, 720912, 0, 65538, 720913, 0, 65541, 720914, 0, 65537, 720915, 0, 65540, 720916, 0, 65537, 720917, 0, 589829, 720918, 0, 4, 720919, 0, 6, 720934, 0, 458756, 720935, 0, 65541, 720936, 0, 65542, 786432, 0, 327684, 786433, 0, 65541, 786434, 0, 65538, 786435, 0, 65538, 786436, 0, 65538, 786437, 0, 65537, 786438, 0, 65541, 786439, 0, 65537, 786440, 0, 65540, 786441, 0, 393221, 786446, 0, 131072, 786447, 0, 131073, 786448, 0, 131075, 786449, 0, 131074, 786450, 0, 131077, 786451, 0, 131077, 786452, 0, 262147, 786453, 0, 131073, 786454, 0, 262147, 786455, 0, 131078, 786470, 0, 65536, 786471, 0, 65537, 786472, 0, 393221, 851968, 0, 327684, 851969, 0, 65540, 851970, 0, 65541, 851971, 0, 65538, 851972, 0, 65540, 851973, 0, 65537, 851974, 0, 65539, 851975, 0, 65539, 851976, 0, 65538, 851977, 0, 393221, 852006, 0, 65536, 852007, 0, 65537, 852008, 0, 524293, 917504, 0, 327684, 917505, 0, 65541, 917506, 0, 65537, 917507, 0, 65540, 917508, 0, 65538, 917509, 0, 65539, 917510, 0, 65539, 917511, 0, 65537, 917512, 0, 65541, 917513, 0, 393221, 917542, 0, 65536, 917543, 0, 65541, 917544, 0, 524293, 983040, 0, 65536, 983041, 0, 65539, 983042, 0, 65538, 983043, 0, 65537, 983044, 0, 65538, 983045, 0, 65537, 983046, 0, 65540, 983047, 0, 65539, 983048, 0, 65541, 983049, 0, 458757, 983078, 0, 327684, 983079, 0, 65541, 983080, 0, 524293, 1048576, 0, 327684, 1048577, 0, 65539, 1048578, 0, 65537, 1048579, 0, 65539, 1048580, 0, 65541, 1048581, 0, 65540, 1048582, 0, 65541, 1048583, 0, 65538, 1048584, 0, 65537, 1048585, 0, 393221, 1048614, 0, 458756, 1048615, 0, 65538, 1048616, 0, 393221, 1114112, 0, 458756, 1114113, 0, 65541, 1114114, 0, 65541, 1114115, 0, 65537, 1114116, 0, 65537, 1114117, 0, 65538, 1114118, 0, 65539, 1114119, 0, 65539, 1114120, 0, 65541, 1114121, 0, 327685, 1114150, 0, 393220, 1114151, 0, 65541, 1114152, 0, 524293, 1179648, 0, 393220, 1179649, 0, 65537, 1179650, 0, 65540, 1179651, 0, 65541, 1179652, 0, 65540, 1179653, 0, 65537, 1179654, 0, 65541, 1179655, 0, 65540, 1179656, 0, 65540, 1179657, 0, 65542, 1179686, 0, 393220, 1179687, 0, 65541, 1179688, 0, 524293, 1245184, 0, 65536, 1245185, 0, 65541, 1245186, 0, 65537, 1245187, 0, 65537, 1245188, 0, 65539, 1245189, 0, 65539, 1245190, 0, 65539, 1245191, 0, 65538, 1245192, 0, 65537, 1245193, 0, 393221, 1245198, 0, 0, 1245199, 0, 5, 1245200, 0, 2, 1245201, 0, 4, 1245202, 0, 4, 1245203, 0, 5, 1245204, 0, 589826, 1245205, 0, 2, 1245206, 0, 3, 1245207, 0, 589827, 1245208, 0, 1, 1245209, 0, 6, 1245222, 0, 393220, 1245223, 0, 65540, 1245224, 0, 524293, 1310720, 0, 65536, 1310721, 0, 65538, 1310722, 0, 65538, 1310723, 0, 65541, 1310724, 0, 65540, 1310725, 0, 65538, 1310726, 0, 65538, 1310727, 0, 65539, 1310728, 0, 65541, 1310729, 0, 65542, 1310734, 0, 524292, 1310735, 0, 65540, 1310736, 0, 65541, 1310737, 0, 65537, 1310738, 0, 65538, 1310739, 0, 65538, 1310740, 0, 65540, 1310741, 0, 65541, 1310742, 0, 65541, 1310743, 0, 65541, 1310744, 0, 65538, 1310745, 0, 458757, 1310758, 0, 327684, 1310759, 0, 65538, 1310760, 0, 327685, 1376256, 0, 393220, 1376257, 0, 65539, 1376258, 0, 65537, 1376259, 0, 65538, 1376260, 0, 65541, 1376261, 0, 65541, 1376262, 0, 65540, 1376263, 0, 65541, 1376264, 0, 65541, 1376265, 0, 589829, 1376266, 0, 1, 1376267, 0, 4, 1376268, 0, 589826, 1376269, 0, 1, 1376270, 0, 589828, 1376271, 0, 65537, 1376272, 0, 65537, 1376273, 0, 65537, 1376274, 0, 65539, 1376275, 0, 65541, 1376276, 0, 65541, 1376277, 0, 65537, 1376278, 0, 65538, 1376279, 0, 65538, 1376280, 0, 65538, 1376281, 0, 589829, 1376282, 0, 5, 1376283, 0, 1, 1376284, 0, 2, 1376285, 0, 3, 1376286, 0, 589826, 1376287, 0, 2, 1376288, 0, 3, 1376289, 0, 589827, 1376290, 0, 3, 1376291, 0, 1, 1376292, 0, 1, 1376293, 0, 3, 1376294, 0, 589828, 1376295, 0, 65541, 1376296, 0, 458757, 1441792, 0, 262144, 1441793, 0, 131073, 1441794, 0, 131075, 1441795, 0, 131074, 1441796, 0, 131077, 1441797, 0, 131073, 1441798, 0, 131074, 1441799, 0, 131077, 1441800, 0, 262147, 1441801, 0, 262147, 1441802, 0, 131074, 1441803, 0, 131076, 1441804, 0, 131077, 1441805, 0, 131077, 1441806, 0, 131077, 1441807, 0, 262146, 1441808, 0, 131074, 1441809, 0, 131075, 1441810, 0, 131076, 1441811, 0, 131077, 1441812, 0, 262147, 1441813, 0, 131077, 1441814, 0, 131073, 1441815, 0, 262146, 1441816, 0, 131073, 1441817, 0, 131074, 1441818, 0, 131075, 1441819, 0, 131073, 1441820, 0, 131076, 1441821, 0, 131077, 1441822, 0, 131076, 1441823, 0, 262147, 1441824, 0, 131075, 1441825, 0, 131075, 1441826, 0, 131077, 1441827, 0, 131073, 1441828, 0, 131074, 1441829, 0, 131074, 1441830, 0, 131074, 1441831, 0, 131077, 1441832, 0, 131078 )
