[gd_scene load_steps=8 format=2]

[ext_resource path="res://entity/Entity.tscn" type="PackedScene" id=1]
[ext_resource path="res://entity/block/BlockPhysics.gd" type="Script" id=2]
[ext_resource path="res://entity/block/Pushable.tscn" type="PackedScene" id=3]
[ext_resource path="res://assets/sfx/pushbox.wav" type="AudioStream" id=4]
[ext_resource path="res://assets/sprites/bloco_normal.png" type="Texture" id=5]

[sub_resource type="RectangleShape2D" id=1]
extents = Vector2( 16, 16 )

[sub_resource type="RectangleShape2D" id=2]
extents = Vector2( 16, 16 )

[node name="Block" instance=ExtResource( 1 )]
collision_layer = 4
collision_mask = 7
collision/safe_margin = 0.001

[node name="Shape" parent="." index="0"]
position = Vector2( 0, -16 )
shape = SubResource( 1 )

[node name="Sprite" type="Sprite" parent="." index="1"]
position = Vector2( 0, -16 )
scale = Vector2( 1, 1.52381 )
texture = ExtResource( 5 )

[node name="Polygon2D" type="Polygon2D" parent="." index="2"]
visible = false
color = Color( 0.0823529, 0.141176, 0.411765, 1 )
polygon = PoolVector2Array( -16, 0, -16, -32, 16, -32, 16, 0 )

[node name="Pushable" parent="." index="3" instance=ExtResource( 3 )]

[node name="PushSFX" type="AudioStreamPlayer2D" parent="Pushable" index="0"]
stream = ExtResource( 4 )

[node name="Hitbox" parent="WaterPhysics" index="0"]
position = Vector2( 0, -16 )
shape = SubResource( 2 )

[node name="BlockPhysics" type="Node2D" parent="." index="5"]
script = ExtResource( 2 )
gravity = 500
max_speed = 500
