[gd_scene load_steps=3 format=2]

[ext_resource path="res://entity/fusing_device/FusingDevice.tscn" type="PackedScene" id=1]
[ext_resource path="res://entity/chimaera/part/kangaroo/KangarooLegs.tscn" type="PackedScene" id=2]

[node name="FusingDevice" instance=ExtResource( 1 )]

[node name="Fusion" parent="." index="2"]
part_scn = ExtResource( 2 )
